{
  "project_info": {
    "project_number": "946513151303",
    "firebase_url": "https://seamossociosandroid.firebaseio.com",
    "project_id": "seamossociosandroid",
    "storage_bucket": "seamossociosandroid.appspot.com"
  },
  "client": [
    {
      "client_info": {
        "mobilesdk_app_id": "1:946513151303:android:0c79885b796f4028",
        "android_client_info": {
          "package_name": "com.jerarquicos.futurossocios"
        }
      },
      "oauth_client": [
        {
          "client_id": "946513151303-n3vcko049m4r7601oc04m13845b6mnbo.apps.googleusercontent.com",
          "client_type": 3
        }
      ],
      "api_key": [
        {
          "current_key": "AIzaSyA4Z-jXqZCuCs5Wbg4hquf_VpuoB2cT1aY"
        }
      ],
      "services": {
        "analytics_service": {
          "status": 1
        },
        "appinvite_service": {
          "status": 1,
          "other_platform_oauth_client": []
        },
        "ads_service": {
          "status": 2
        }
      }
    }
  ],
  "configuration_version": "1"
}